<svg width="60" height="60" viewBox="0 0 120 120" fill="none" xmlns="http://www.w3.org/2000/svg">
<path d="M0 0H120V120H0V0Z" fill="#F6F6F6"/>
<path fill-rule="evenodd" clip-rule="evenodd" d="M44.375 43.8125C44.0643 43.8125 43.8125 44.0643 43.8125 44.375V66.9607L48.8023 61.971C49.0401 61.7303 49.3232 61.5391 49.6353 61.4084C49.9488 61.2772 50.2852 61.2096 50.625 61.2096C50.9648 61.2096 51.3012 61.2772 51.6147 61.4084C51.9268 61.5391 52.2099 61.7303 52.4477 61.971L56.4742 65.9975C56.5266 66.0506 56.5889 66.0928 56.6578 66.1217C56.7266 66.1505 56.8004 66.1653 56.875 66.1653C56.9496 66.1653 57.0234 66.1505 57.0922 66.1217C57.1611 66.0928 57.2234 66.0506 57.2758 65.9975L57.2812 65.992L65.9867 57.2866L65.9897 57.2836C66.2275 57.0429 66.5107 56.8516 66.8228 56.7209C67.1363 56.5897 67.4727 56.5221 67.8125 56.5221C68.1523 56.5221 68.4887 56.5897 68.8022 56.7209C69.1143 56.8516 69.3975 57.0429 69.6353 57.2836L69.6383 57.2866L76.1875 63.8357V44.375C76.1875 44.0643 75.9357 43.8125 75.625 43.8125H44.375ZM56.0938 52.9688C56.0938 53.8317 55.3942 54.5312 54.5312 54.5312C53.6683 54.5312 52.9688 53.8317 52.9688 52.9688C52.9688 52.1058 53.6683 51.4062 54.5312 51.4062C55.3942 51.4062 56.0938 52.1058 56.0938 52.9688Z" fill="#5C5D5F"/>
<path d="M50.2188 63.3829L43.8125 69.7892V75.625C43.8125 75.9357 44.0643 76.1875 44.375 76.1875H75.625C75.9357 76.1875 76.1875 75.9357 76.1875 75.625V66.6642L68.2133 58.6899C68.1609 58.6368 68.0986 58.5945 68.0297 58.5657C67.9609 58.5369 67.8871 58.5221 67.8125 58.5221C67.7379 58.5221 67.6641 58.5369 67.5953 58.5657C67.5264 58.5945 67.4641 58.6368 67.4117 58.6899L67.4063 58.6954L58.6977 67.4039C58.4599 67.6446 58.1768 67.8358 57.8647 67.9665C57.5512 68.0977 57.2148 68.1653 56.875 68.1653C56.5352 68.1653 56.1988 68.0977 55.8853 67.9665C55.5732 67.8358 55.2901 67.6446 55.0523 67.4039L51.0258 63.3774C50.9734 63.3243 50.9111 63.2821 50.8422 63.2532C50.7734 63.2244 50.6996 63.2096 50.625 63.2096C50.5504 63.2096 50.4766 63.2244 50.4078 63.2532C50.3389 63.2821 50.2766 63.3243 50.2242 63.3774L50.2188 63.3829Z" fill="#5C5D5F"/>
<path fill-rule="evenodd" clip-rule="evenodd" d="M21 30C19.3431 30 18 31.3431 18 33V87C18 88.6569 19.3431 90 21 90H99C100.657 90 102 88.6569 102 87V33C102 31.3431 100.657 30 99 30H21ZM44.375 41.8125C42.9598 41.8125 41.8125 42.9598 41.8125 44.375V75.625C41.8125 77.0402 42.9598 78.1875 44.375 78.1875H75.625C77.0402 78.1875 78.1875 77.0402 78.1875 75.625V44.375C78.1875 42.9598 77.0402 41.8125 75.625 41.8125H44.375ZM31.2071 55.5429C31.5976 55.9334 31.5976 56.5666 31.2071 56.9571L28.1642 60L31.2071 63.0429C31.5976 63.4334 31.5976 64.0666 31.2071 64.4571C30.8166 64.8476 30.1834 64.8476 29.7929 64.4571L26.0429 60.7071C25.6524 60.3166 25.6524 59.6834 26.0429 59.2929L29.7929 55.5429C30.1834 55.1524 30.8166 55.1524 31.2071 55.5429ZM88.7929 63.0429C88.4024 63.4334 88.4024 64.0666 88.7929 64.4571C89.1834 64.8476 89.8166 64.8476 90.2071 64.4571L93.9571 60.7071C94.3476 60.3166 94.3476 59.6834 93.9571 59.2929L90.2071 55.5429C89.8166 55.1524 89.1834 55.1524 88.7929 55.5429C88.4024 55.9334 88.4024 56.5666 88.7929 56.9571L91.8358 60L88.7929 63.0429Z" fill="#5C5D5F"/>
</svg>
