<svg width="60" height="60" viewBox="0 0 120 120" fill="none" xmlns="http://www.w3.org/2000/svg">
<rect width="120" height="120" fill="#F6F6F6"/>
<path fill-rule="evenodd" clip-rule="evenodd" d="M59.9375 50.8818C54.6908 50.8818 50.4375 55.1351 50.4375 60.3818C50.4375 65.6285 54.6908 69.8818 59.9375 69.8818C65.1842 69.8818 69.4375 65.6285 69.4375 60.3818C69.4375 55.1351 65.1842 50.8818 59.9375 50.8818ZM48.4375 60.3818C48.4375 54.0306 53.5862 48.8818 59.9375 48.8818C66.2888 48.8818 71.4375 54.0306 71.4375 60.3818C71.4375 66.7331 66.2888 71.8818 59.9375 71.8818C53.5862 71.8818 48.4375 66.7331 48.4375 60.3818Z" fill="#5C5D5F"/>
<path d="M56 60.0693C57.0355 60.0693 57.875 59.2299 57.875 58.1943C57.875 57.1588 57.0355 56.3193 56 56.3193C54.9645 56.3193 54.125 57.1588 54.125 58.1943C54.125 59.2299 54.9645 60.0693 56 60.0693Z" fill="#5C5D5F"/>
<path d="M63.875 60.0693C64.9105 60.0693 65.75 59.2299 65.75 58.1943C65.75 57.1588 64.9105 56.3193 63.875 56.3193C62.8395 56.3193 62 57.1588 62 58.1943C62 59.2299 62.8395 60.0693 63.875 60.0693Z" fill="#5C5D5F"/>
<path fill-rule="evenodd" clip-rule="evenodd" d="M54.8856 62.142C55.3633 61.8648 55.9752 62.0272 56.2525 62.5049C56.6271 63.1503 57.1647 63.686 57.8114 64.0584C58.4582 64.4308 59.1913 64.6268 59.9376 64.6268C60.6839 64.6268 61.4171 64.4308 62.0638 64.0584C62.7105 63.686 63.2481 63.1503 63.6228 62.5049C63.9 62.0272 64.512 61.8648 64.9896 62.142C65.4673 62.4193 65.6297 63.0312 65.3525 63.5089C64.802 64.4573 64.0121 65.2444 63.0618 65.7916C62.1115 66.3388 61.0342 66.6268 59.9376 66.6268C58.841 66.6268 57.7637 66.3388 56.8134 65.7916C55.8631 65.2444 55.0732 64.4573 54.5228 63.5089C54.2455 63.0312 54.408 62.4193 54.8856 62.142Z" fill="#5C5D5F"/>
<path fill-rule="evenodd" clip-rule="evenodd" d="M24.8907 52.3069C23.9342 51.7976 22.8308 51.6354 21.7682 51.8479C20.7056 52.0604 19.7495 52.6345 19.0625 53.4725C18.3754 54.3105 18 55.3607 18 56.4443C18 59.7028 20.4313 62.8356 23.1377 65.2714C24.4607 66.462 25.7882 67.4315 26.787 68.1041C27.2574 68.4208 27.6527 68.6702 27.9375 68.8444C28.2223 68.6702 28.6176 68.4208 29.088 68.1041C30.0868 67.4315 31.4143 66.462 32.7373 65.2714C35.4437 62.8356 37.875 59.7028 37.875 56.4443C37.875 55.3607 37.4996 54.3105 36.8125 53.4725C36.1255 52.6345 35.1694 52.0604 34.1068 51.8479C33.0442 51.6354 31.9408 51.7976 30.9843 52.3069C30.0278 52.8162 29.2774 53.6412 28.8606 54.6415C28.6482 55.1513 28.0627 55.3923 27.5529 55.1799C27.2987 55.074 27.1113 54.8753 27.0136 54.6395C26.5967 53.6401 25.8465 52.8159 24.8907 52.3069ZM27.9375 52.3019C27.3685 51.5808 26.653 50.9794 25.8307 50.5416C24.4661 49.8149 22.8919 49.5835 21.376 49.8867C19.86 50.1899 18.4959 51.009 17.5158 52.2045C16.5356 53.4001 16 54.8984 16 56.4443C16 60.6234 19.0374 64.2718 21.7998 66.758C23.2112 68.0282 24.6181 69.0548 25.67 69.7631C26.1969 70.1179 26.6372 70.3944 26.9477 70.5834C27.103 70.6779 27.2259 70.7506 27.3112 70.8003C27.3539 70.8251 27.3871 70.8442 27.4103 70.8575L27.4374 70.8729L27.4451 70.8772L27.4475 70.8786C27.4478 70.8787 27.4489 70.8794 27.9375 70.0068L27.4489 70.8794C27.7525 71.0493 28.1225 71.0493 28.4261 70.8794L27.9375 70.0068C28.4261 70.8794 28.4258 70.8795 28.4261 70.8794L28.4275 70.8786L28.4299 70.8772L28.4376 70.8729L28.4647 70.8575C28.4879 70.8442 28.5211 70.8251 28.5638 70.8003C28.6491 70.7506 28.772 70.6779 28.9273 70.5834C29.2378 70.3944 29.6781 70.1179 30.205 69.7631C31.2569 69.0548 32.6638 68.0282 34.0752 66.758C36.8376 64.2718 39.875 60.6234 39.875 56.4443C39.875 54.8984 39.3394 53.4001 38.3592 52.2045C37.3791 51.009 36.015 50.1899 34.499 49.8867C32.9831 49.5835 31.4089 49.8149 30.0443 50.5416C29.222 50.9794 28.5065 51.5808 27.9375 52.3019Z" fill="#5C5D5F"/>
<path fill-rule="evenodd" clip-rule="evenodd" d="M90.8431 48.3451C91.1639 48.1205 91.5459 48 91.9375 48C92.3291 48 92.7112 48.1205 93.032 48.3451C93.348 48.5665 93.5894 48.8783 93.7244 49.2395L96.1125 55.253L102.513 55.6652C104.307 55.7817 104.914 58.0235 103.613 59.1052C103.613 59.1054 103.613 59.1056 103.612 59.1058L98.6906 63.211L100.279 69.4541C100.69 71.0798 98.9334 72.5541 97.3978 71.5855L97.3953 71.5839L91.9375 68.1186L86.8635 71.3318C86.8632 71.332 86.8629 71.3322 86.8625 71.3324C85.1869 72.3976 83.2625 70.7757 83.7169 68.9946C83.7168 68.9949 83.7169 68.9943 83.7169 68.9946L85.1845 63.211L80.2627 59.1058C80.2624 59.1056 80.2622 59.1054 80.2619 59.1052C78.9608 58.0235 79.5677 55.7817 81.3618 55.6652L87.7626 55.253L90.1506 49.2395C90.2857 48.8783 90.5271 48.5665 90.8431 48.3451ZM98.6673 63.2304C98.6672 63.2305 98.6674 63.2303 98.6673 63.2304V63.2304ZM91.9375 50.1586L89.611 56.0172C89.4813 56.3594 89.2559 56.6572 88.9616 56.875C88.6646 57.0947 88.3102 57.2234 87.9414 57.2456L81.6413 57.6514L86.4826 61.6893C86.4832 61.6899 86.4839 61.6904 86.4846 61.691C86.767 61.9251 86.9777 62.2341 87.0925 62.5825C87.2076 62.9318 87.2217 63.3064 87.1331 63.6633L87.1318 63.6685L85.6548 69.4888C85.6429 69.5354 85.649 69.562 85.655 69.5781C85.6628 69.5991 85.6786 69.6214 85.7013 69.6387C85.724 69.656 85.7423 69.6598 85.7492 69.6602C85.7497 69.6603 85.7605 69.6631 85.7897 69.6445L85.7916 69.6433L90.9197 66.3958C90.9195 66.3959 90.9199 66.3957 90.9197 66.3958C91.2238 66.2026 91.5772 66.0996 91.9375 66.0996C92.2981 66.0996 92.6511 66.2024 92.9554 66.3958L98.3001 69.7893L96.742 63.6633C96.6534 63.3064 96.6675 62.9318 96.7826 62.5825C96.8974 62.234 97.1082 61.925 97.3907 61.6908C97.3913 61.6903 97.3919 61.6898 97.3925 61.6893L102.234 57.6514L95.9373 57.2458C95.9361 57.2457 95.9349 57.2457 95.9336 57.2456C95.5649 57.2234 95.2105 57.0947 94.9135 56.875C94.6191 56.6572 94.3937 56.3594 94.2641 56.0172L91.9375 50.1586Z" fill="#5C5D5F"/>
</svg>
